test.vcd
$version Generated by VerilatedVcd $end
$date Fri Apr 26 13:02:43 2024
 $end
$timescale  10s $end

 $scope module TOP $end
  $var wire  1 ( i_clk $end
  $var wire  8 & i_data [7:0] $end
  $var wire  1 ' i_wr $end
  $var wire  1 ) o_busy $end
  $var wire  1 * o_uart_tx $end
  $scope module uart_tx $end
   $var wire 32 , IDLE [31:0] $end
   $var wire 32 + WIDTH [31:0] $end
   $var wire  1 ( i_clk $end
   $var wire  8 & i_data [7:0] $end
   $var wire  1 ' i_wr $end
   $var wire  1 ) o_busy $end
   $var wire  1 * o_uart_tx $end
   $var wire  1 % r_busy $end
   $var wire  8 # r_data [7:0] $end
   $var wire 32 $ r_state [31:0] $end
  $upscope $end
 $upscope $end
$enddefinitions $end


#6
b00000000 #
b00000000000000000000000000000000 $
0%
b00101111 &
1'
0(
0)
0*
b00000000000000000000000000001000 +
b00000000000000000000000000000000 ,
#10
b00101111 #
b00000000000000000000000000000001 $
1%
1(
1)
1*
#15
0(
#16
#20
b00000000000000000000000000000000 $
0%
1(
0)
0*
#25
0(
#26
#30
b00000000000000000000000000000001 $
1%
1(
1)
1*
#35
0(
#36
#40
b00000000000000000000000000000000 $
0%
1(
0)
0*
#45
0(
#46
#50
b00000000000000000000000000000001 $
1%
1(
1)
1*
#55
0(
#56
#60
b00000000000000000000000000000000 $
0%
1(
0)
0*
#65
0(
#66
#70
b00000000000000000000000000000001 $
1%
1(
1)
1*
#75
0(
#76
#80
b00000000000000000000000000000000 $
0%
1(
0)
0*
#85
0(
#86
#90
b00000000000000000000000000000001 $
1%
1(
1)
1*
#95
0(
#96
#100
b00000000000000000000000000000000 $
0%
1(
0)
0*
#105
0(
#106
#110
b00000000000000000000000000000001 $
1%
1(
1)
1*
#115
0(
#116
#120
b00000000000000000000000000000000 $
0%
1(
0)
0*
#125
0(
#126
#130
b00000000000000000000000000000001 $
1%
1(
1)
1*
#135
0(
#136
#140
b00000000000000000000000000000000 $
0%
1(
0)
0*
#145
0(
#146
#150
b00000000000000000000000000000001 $
1%
1(
1)
1*
#155
0(
#156
#160
b00000000000000000000000000000000 $
0%
1(
0)
0*
#165
0(
#166
#170
b00000000000000000000000000000001 $
1%
1(
1)
1*
#175
0(
#176
#180
b00000000000000000000000000000000 $
0%
1(
0)
0*
#185
0(
#186
#190
b00000000000000000000000000000001 $
1%
1(
1)
1*
#195
0(
#196
#200
b00000000000000000000000000000000 $
0%
1(
0)
0*
#205
0(
#206
#210
b00000000000000000000000000000001 $
1%
1(
1)
1*
#215
0(
#216
#220
b00000000000000000000000000000000 $
0%
1(
0)
0*
#225
0(
#226
#230
b00000000000000000000000000000001 $
1%
1(
1)
1*
#235
0(
#236
#240
b00000000000000000000000000000000 $
0%
1(
0)
0*
#245
0(
#246
#250
b00000000000000000000000000000001 $
1%
1(
1)
1*
#255
0(
#256
#260
b00000000000000000000000000000000 $
0%
1(
0)
0*
#265
0(
#266
#270
b00000000000000000000000000000001 $
1%
1(
1)
1*
#275
0(
#276
#280
b00000000000000000000000000000000 $
0%
1(
0)
0*
#285
0(
#286
#290
b00000000000000000000000000000001 $
1%
1(
1)
1*
#295
0(
#296
#300
b00000000000000000000000000000000 $
0%
1(
0)
0*
#305
0(
#306
#310
b00000000000000000000000000000001 $
1%
1(
1)
1*
#315
0(
#316
#320
b00000000000000000000000000000000 $
0%
1(
0)
0*
#325
0(
#326
#330
b00000000000000000000000000000001 $
1%
1(
1)
1*
#335
0(
#336
#340
b00000000000000000000000000000000 $
0%
1(
0)
0*
#345
0(
#346
#350
b00000000000000000000000000000001 $
1%
1(
1)
1*
#355
0(
#356
#360
b00000000000000000000000000000000 $
0%
1(
0)
0*
#365
0(
#366
#370
b00000000000000000000000000000001 $
1%
1(
1)
1*
#375
0(
#376
#380
b00000000000000000000000000000000 $
0%
1(
0)
0*
#385
0(
#386
#390
b00000000000000000000000000000001 $
1%
1(
1)
1*
#395
0(
#396
#400
b00000000000000000000000000000000 $
0%
1(
0)
0*
#405
0(
#406
#410
b00000000000000000000000000000001 $
1%
1(
1)
1*
#415
0(
#416
#420
b00000000000000000000000000000000 $
0%
1(
0)
0*
#425
0(
#426
#430
b00000000000000000000000000000001 $
1%
1(
1)
1*
#435
0(
#436
#440
b00000000000000000000000000000000 $
0%
1(
0)
0*
#445
0(
#446
#450
b00000000000000000000000000000001 $
1%
1(
1)
1*
#455
0(
#456
#460
b00000000000000000000000000000000 $
0%
1(
0)
0*
#465
0(
#466
#470
b00000000000000000000000000000001 $
1%
1(
1)
1*
#475
0(
#476
#480
b00000000000000000000000000000000 $
0%
1(
0)
0*
#485
0(
#486
#490
b00000000000000000000000000000001 $
1%
1(
1)
1*
#495
0(
#496
#500
b00000000000000000000000000000000 $
0%
1(
0)
0*
#505
0(
#506
#510
b00000000000000000000000000000001 $
1%
1(
1)
1*
#515
0(
#516
#520
b00000000000000000000000000000000 $
0%
1(
0)
0*
#525
0(
#526
#530
b00000000000000000000000000000001 $
1%
1(
1)
1*
#535
0(
#536
#540
b00000000000000000000000000000000 $
0%
1(
0)
0*
#545
0(
#546
#550
b00000000000000000000000000000001 $
1%
1(
1)
1*
#555
0(
#556
#560
b00000000000000000000000000000000 $
0%
1(
0)
0*
#565
0(
#566
#570
b00000000000000000000000000000001 $
1%
1(
1)
1*
#575
0(
#576
#580
b00000000000000000000000000000000 $
0%
1(
0)
0*
#585
0(
#586
#590
b00000000000000000000000000000001 $
1%
1(
1)
1*
#595
0(
#596
#600
b00000000000000000000000000000000 $
0%
1(
0)
0*
#605
0(
#606
#610
b00000000000000000000000000000001 $
1%
1(
1)
1*
#615
0(
#616
#620
b00000000000000000000000000000000 $
0%
1(
0)
0*
#625
0(
#626
#630
b00000000000000000000000000000001 $
1%
1(
1)
1*
#635
0(
#636
#640
b00000000000000000000000000000000 $
0%
1(
0)
0*
#645
0(
#646
#650
b00000000000000000000000000000001 $
1%
1(
1)
1*
#655
0(
#656
#660
b00000000000000000000000000000000 $
0%
1(
0)
0*
#665
0(
#666
#670
b00000000000000000000000000000001 $
1%
1(
1)
1*
#675
0(
#676
#680
b00000000000000000000000000000000 $
0%
1(
0)
0*
#685
0(
#686
#690
b00000000000000000000000000000001 $
1%
1(
1)
1*
#695
0(
#696
#700
b00000000000000000000000000000000 $
0%
1(
0)
0*
#705
0(
#706
#710
b00000000000000000000000000000001 $
1%
1(
1)
1*
#715
0(
#716
#720
b00000000000000000000000000000000 $
0%
1(
0)
0*
#725
0(
#726
#730
b00000000000000000000000000000001 $
1%
1(
1)
1*
#735
0(
#736
#740
b00000000000000000000000000000000 $
0%
1(
0)
0*
#745
0(
#746
#750
b00000000000000000000000000000001 $
1%
1(
1)
1*
#755
0(
#756
#760
b00000000000000000000000000000000 $
0%
1(
0)
0*
#765
0(
#766
#770
b00000000000000000000000000000001 $
1%
1(
1)
1*
#775
0(
#776
#780
b00000000000000000000000000000000 $
0%
1(
0)
0*
#785
0(
#786
#790
b00000000000000000000000000000001 $
1%
1(
1)
1*
#795
0(
#796
#800
b00000000000000000000000000000000 $
0%
1(
0)
0*
#805
0(
#806
#810
b00000000000000000000000000000001 $
1%
1(
1)
1*
#815
0(
#816
#820
b00000000000000000000000000000000 $
0%
1(
0)
0*
#825
0(
#826
#830
b00000000000000000000000000000001 $
1%
1(
1)
1*
#835
0(
#836
#840
b00000000000000000000000000000000 $
0%
1(
0)
0*
#845
0(
#846
#850
b00000000000000000000000000000001 $
1%
1(
1)
1*
#855
0(
#856
#860
b00000000000000000000000000000000 $
0%
1(
0)
0*
#865
0(
#866
#870
b00000000000000000000000000000001 $
1%
1(
1)
1*
#875
0(
#876
#880
b00000000000000000000000000000000 $
0%
1(
0)
0*
#885
0(
#886
#890
b00000000000000000000000000000001 $
1%
1(
1)
1*
#895
0(
#896
#900
b00000000000000000000000000000000 $
0%
1(
0)
0*
#905
0(
#906
#910
b00000000000000000000000000000001 $
1%
1(
1)
1*
#915
0(
#916
#920
b00000000000000000000000000000000 $
0%
1(
0)
0*
#925
0(
#926
#930
b00000000000000000000000000000001 $
1%
1(
1)
1*
#935
0(
#936
#940
b00000000000000000000000000000000 $
0%
1(
0)
0*
#945
0(
#946
#950
b00000000000000000000000000000001 $
1%
1(
1)
1*
#955
0(
#956
#960
b00000000000000000000000000000000 $
0%
1(
0)
0*
#965
0(
#966
#970
b00000000000000000000000000000001 $
1%
1(
1)
1*
#975
0(
#976
#980
b00000000000000000000000000000000 $
0%
1(
0)
0*
#985
0(
#986
#990
b00000000000000000000000000000001 $
1%
1(
1)
1*
#995
0(
#996
#1000
b00000000000000000000000000000000 $
0%
1(
0)
0*
